Events{6}
  Event (0,0): Actions{1}
    Action (603,1): Code[31 lines]
self.depth = -room_height = 3000;

audio_play_sound(sfx_attack1, 1, false);

//Set a kill switch
alarm[0] = 50;

//Turn off particles on a timer.
self.partOn = true;
alarm[1] = 20; //Particles go off here.
alarm[2] = 5;  //Start flashing here.
alarm[3] = 30;  //Stop flashing; show damage

//This is a "stabbing" attack with red particles.
self.slashStartX;
self.slashStartY;
self.slashEndX;
self.slashEndY;
self.slashLength;
var Amount = 150; //*2 for total slash length.
with (global.AttackOriginator) {
  var ang = point_direction(global.AttackOriginator.x, global.AttackOriginator.y, global.AttackCenterX, global.AttackCenterY);
  other.slashStartX = global.AttackOriginator.x + lengthdir_x(Amount*0.5, ang);
  other.slashStartY = global.AttackOriginator.y + lengthdir_y(Amount*0.5, ang);
  other.slashEndX = global.AttackOriginator.x + lengthdir_x(Amount*1.75, ang);
  other.slashEndY = global.AttackOriginator.y + lengthdir_y(Amount*1.75, ang);
  other.slashLength = point_distance(other.slashStartX, other.slashStartY, other.slashEndX, other.slashEndY);
}

//State of the slash.
self.slashPos = 0; //0.0 -> 1.0, percent of slashLength
  Event (0,2): Actions{1}
    Action (603,1): Code[3 lines]
//Destroy/done
global.DoneAnim = true;
instance_destroy();
  Event (1,2): Actions{1}
    Action (603,1): Code[1 lines]
self.partOn = false;
  Event (2,2): Actions{1}
    Action (603,1): Code[1 lines]
scr_turn_on_damage(true);
  Event (3,2): Actions{1}
    Action (603,1): Code[3 lines]
//Stop flashing; show damage.
scr_turn_on_damage(false);
scr_calc_spell_damage();
  Event (0,3): Actions{1}
    Action (603,1): Code[17 lines]
//How far along are we?
var distX = slashEndX - slashStartX;
var distY = slashEndY - slashStartY;
var currX = slashStartX + self.slashPos * distX;
var currY = slashStartY + self.slashPos * distY;

//Spawn some red particles at the current position.
if (self.partOn) {
  repeat(30) {
    part_particles_create(global.part_sys, currX+random(10), currY-5+random(10), global.part_white_star, 1);
  }
}

//Move
if (self.slashPos<1.0) {
  self.slashPos += 0.1;
}
